id,parent_1,parent_2,fitness,generation
1,0,0,0.7000000000,0
2,0,0,1.0000000000,0
3,0,0,0.7000000000,0
4,0,0,1.0000000000,0
5,0,0,1.0000000000,0
6,0,0,0.7000000000,0
7,0,0,1.0000000000,0
8,0,0,1.0000000000,0
9,0,0,1.0000000000,0
10,0,0,0.7000000000,0
11,8,5,0.7000000000,1
12,2,6,1.0000000000,1
13,5,4,1.0000000000,1
14,7,4,0.7000000000,1
15,10,2,1.0000000000,1
16,7,10,1.0000000000,1
17,7,3,0.7000000000,1
18,7,4,1.0000000000,1
19,8,8,0.0823543000,1
20,5,5,0.0823543000,1
21,17,18,0.1680700000,2
22,17,15,1.0000000000,2
23,16,14,0.7000000000,2
24,11,12,0.4900000000,2
25,12,14,1.0000000000,2
26,18,15,1.0000000000,2
27,13,11,1.0000000000,2
28,12,15,0.7000000000,2
29,16,16,0.0823543000,2
30,17,11,1.0000000000,2
31,26,30,1.0000000000,3
32,25,25,0.4900000000,3
33,26,25,0.4900000000,3
34,30,23,0.7000000000,3
35,25,27,1.0000000000,3
36,22,27,1.0000000000,3
37,30,28,1.0000000000,3
38,28,30,1.0000000000,3
39,26,28,0.7000000000,3
40,23,28,0.4900000000,3
41,40,37,0.4900000000,4
42,33,35,0.4900000000,4
43,39,36,0.7000000000,4
44,34,37,0.4900000000,4
45,33,40,0.4900000000,4
46,32,32,0.3430000000,4
47,39,36,0.7000000000,4
48,40,32,1.0000000000,4
49,31,38,0.0823543000,4
50,38,39,0.2401000000,4
51,50,41,0.2401000000,5
52,43,41,0.4900000000,5
53,46,46,0.1680700000,5
54,48,47,0.7000000000,5
55,46,43,0.7000000000,5
56,42,48,0.7000000000,5
57,48,44,0.7000000000,5
58,41,46,0.7000000000,5
59,48,47,0.7000000000,5
60,43,48,0.3430000000,5
61,58,55,0.4900000000,6
62,53,54,1.0000000000,6
63,56,57,0.7000000000,6
64,59,59,0.1176490000,6
65,55,58,0.7000000000,6
66,60,59,0.1176490000,6
67,54,55,0.4900000000,6
68,59,58,0.2401000000,6
69,58,52,0.3430000000,6
70,59,52,0.1680700000,6
71,61,65,0.1680700000,7
72,63,61,0.3430000000,7
73,67,62,0.3430000000,7
74,69,63,0.4900000000,7
75,70,62,1.0000000000,7
76,63,65,0.3430000000,7
77,62,67,0.4900000000,7
78,63,63,0.1680700000,7
79,65,67,0.3430000000,7
80,62,62,0.1176490000,7
81,77,80,0.2401000000,8
82,73,79,0.4900000000,8
83,75,75,0.0403536070,8
84,76,75,0.3430000000,8
85,79,74,0.7000000000,8
86,75,74,0.7000000000,8
87,72,72,0.0576480100,8
88,77,78,0.4900000000,8
89,71,75,0.4900000000,8
90,75,75,0.1176490000,8
91,82,89,0.7000000000,9
92,81,82,0.3430000000,9
93,82,88,0.3430000000,9
94,81,84,0.3430000000,9
95,85,88,0.3430000000,9
96,86,88,0.7000000000,9
97,86,82,0.4900000000,9
98,88,81,0.4900000000,9
99,85,85,0.1680700000,9
100,81,81,0.0576480100,9
101,92,96,0.2401000000,10
102,96,96,0.0403536070,10
103,92,98,0.4900000000,10
104,92,91,0.3430000000,10
105,95,97,0.2401000000,10
106,91,92,0.4900000000,10
107,98,93,0.3430000000,10
108,94,99,0.4900000000,10
109,97,96,0.3430000000,10
110,96,99,0.2401000000,10
111,110,103,0.4900000000,11
112,108,106,0.2401000000,11
113,106,101,0.0576480100,11
114,105,110,0.1680700000,11
115,109,106,0.2401000000,11
116,109,101,0.2401000000,11
117,101,109,0.2401000000,11
118,110,105,0.1680700000,11
119,109,110,0.2401000000,11
120,101,109,0.3430000000,11
121,112,120,0.4900000000,12
122,120,120,0.1176490000,12
123,114,112,0.3430000000,12
124,111,116,0.4900000000,12
125,119,116,0.7000000000,12
126,118,120,0.1680700000,12
127,117,114,0.4900000000,12
128,120,112,0.3430000000,12
129,111,119,0.3430000000,12
130,120,120,0.2401000000,12
131,123,125,0.3430000000,13
132,125,129,0.4900000000,13
133,125,125,0.0823543000,13
134,124,125,0.2401000000,13
135,125,129,0.3430000000,13
136,127,124,0.1680700000,13
137,125,121,0.2401000000,13
138,130,125,0.1176490000,13
139,121,129,0.2401000000,13
140,129,123,0.3430000000,13
141,135,136,0.2401000000,14
142,139,136,0.1680700000,14
143,140,132,0.0823543000,14
144,140,138,0.1176490000,14
145,137,140,0.1680700000,14
146,138,135,0.3430000000,14
147,132,140,0.2401000000,14
148,137,137,0.0096889010,14
149,140,132,0.0823543000,14
150,132,136,0.2401000000,14
151,142,150,0.1680700000,15
152,142,141,0.0576480100,15
153,150,143,0.0282475249,15
154,145,147,0.1176490000,15
155,147,142,0.0576480100,15
156,142,146,0.1680700000,15
157,150,141,0.1176490000,15
158,141,145,0.2401000000,15
159,146,141,0.2401000000,15
160,144,147,0.1176490000,15
161,156,151,0.0576480100,16
162,158,157,0.3430000000,16
163,159,154,0.2401000000,16
164,156,159,0.2401000000,16
165,157,154,0.4900000000,16
166,158,157,0.1176490000,16
167,160,159,0.1176490000,16
168,155,156,0.0823543000,16
169,160,154,0.1176490000,16
170,157,155,0.2401000000,16
171,167,165,0.0823543000,17
172,165,162,0.1176490000,17
173,162,163,0.0823543000,17
174,165,165,0.0282475249,17
175,166,166,0.0282475249,17
176,165,163,0.3430000000,17
177,165,167,0.3430000000,17
178,166,161,0.1680700000,17
179,167,166,0.1680700000,17
180,170,165,0.1680700000,17
181,177,180,0.3430000000,18
182,174,178,0.0403536070,18
183,179,178,0.1176490000,18
184,177,178,0.3430000000,18
185,179,176,0.3430000000,18
186,176,172,0.1176490000,18
187,177,177,0.0823543000,18
188,177,178,0.2401000000,18
189,177,176,0.1176490000,18
190,176,178,0.1176490000,18
191,181,185,0.3430000000,19
192,184,189,0.0823543000,19
193,187,184,0.1176490000,19
194,183,184,0.1680700000,19
195,184,183,0.4900000000,19
196,189,184,0.1176490000,19
197,184,186,0.1680700000,19
198,181,181,0.0403536070,19
199,185,181,0.2401000000,19
200,184,183,0.1680700000,19
201,195,199,0.1680700000,20
202,195,194,0.3430000000,20
203,199,200,0.2401000000,20
204,195,195,0.0197732674,20
205,191,197,0.1176490000,20
206,196,197,0.1176490000,20
207,193,195,0.2401000000,20
208,195,191,0.3430000000,20
209,191,191,0.3430000000,20
210,197,196,0.0823543000,20
211,201,208,0.2401000000,21
212,206,209,0.1680700000,21
213,209,209,0.1176490000,21
214,201,208,0.3430000000,21
215,203,210,0.1680700000,21
216,207,202,0.2401000000,21
217,210,201,0.3430000000,21
218,208,209,0.2401000000,21
219,209,202,0.3430000000,21
220,210,202,0.2401000000,21
221,218,214,0.2401000000,22
222,217,220,0.3430000000,22
223,216,218,0.3430000000,22
224,219,219,0.1176490000,22
225,216,216,0.1680700000,22
226,217,213,0.2401000000,22
227,217,220,0.2401000000,22
228,211,211,0.0823543000,22
229,219,214,0.1176490000,22
230,218,217,0.3430000000,22
231,226,230,0.3430000000,23
232,223,230,0.1680700000,23
233,230,223,0.1680700000,23
234,228,224,0.3430000000,23
235,227,228,0.1680700000,23
236,229,224,0.1176490000,23
237,222,226,0.2401000000,23
238,223,230,0.1680700000,23
239,224,226,0.2401000000,23
240,228,221,0.2401000000,23
241,233,231,0.3430000000,24
242,234,234,0.1176490000,24
243,235,235,0.1680700000,24
244,240,232,0.2401000000,24
245,237,231,0.3430000000,24
246,240,232,0.2401000000,24
247,231,232,0.3430000000,24
248,234,238,0.1176490000,24
249,234,231,0.1680700000,24
250,240,234,0.1176490000,24
251,241,245,0.2401000000,25
252,244,243,0.1680700000,25
253,250,244,0.1680700000,25
254,247,247,0.0403536070,25
255,245,244,0.4900000000,25
256,245,246,0.3430000000,25
257,248,241,0.2401000000,25
258,241,247,0.1680700000,25
259,247,241,0.2401000000,25
260,244,249,0.2401000000,25
261,251,260,0.2401000000,26
262,260,257,0.3430000000,26
263,256,252,0.2401000000,26
264,255,259,0.2401000000,26
265,256,260,0.1680700000,26
266,259,255,0.4900000000,26
267,255,260,0.2401000000,26
268,256,255,0.1680700000,26
269,253,260,0.0823543000,26
270,252,251,0.1176490000,26
271,263,268,0.1176490000,27
272,267,261,0.2401000000,27
273,268,263,0.1176490000,27
274,264,263,0.1176490000,27
275,262,262,0.1176490000,27
276,268,261,0.1680700000,27
277,263,262,0.2401000000,27
278,268,265,0.1680700000,27
279,266,267,0.4900000000,27
280,262,266,0.2401000000,27
281,278,279,0.3430000000,28
282,277,276,0.2401000000,28
283,279,272,0.1680700000,28
284,279,276,0.3430000000,28
285,279,276,0.3430000000,28
286,280,272,0.4900000000,28
287,279,277,0.3430000000,28
288,279,279,0.1680700000,28
289,274,274,0.0282475249,28
290,274,272,0.1680700000,28
291,286,287,0.2401000000,29
292,285,282,0.1680700000,29
293,281,284,0.1176490000,29
294,287,281,0.3430000000,29
295,286,290,0.2401000000,29
296,287,285,0.3430000000,29
297,288,285,0.1680700000,29
298,284,283,0.3430000000,29
299,284,288,0.1680700000,29
300,283,287,0.2401000000,29
301,296,296,0.3430000000,30
302,292,295,0.1680700000,30
303,293,291,0.3430000000,30
304,297,295,0.2401000000,30
305,297,296,0.2401000000,30
306,296,298,0.3430000000,30
307,298,296,0.3430000000,30
308,291,291,0.1176490000,30
309,295,296,0.3430000000,30
310,296,292,0.4900000000,30
311,304,310,0.2401000000,31
312,302,309,0.1680700000,31
313,308,310,0.4900000000,31
314,304,301,0.3430000000,31
315,309,303,0.3430000000,31
316,306,306,0.3430000000,31
317,310,301,0.2401000000,31
318,307,302,0.1680700000,31
319,301,302,0.3430000000,31
320,302,309,0.1680700000,31
321,315,320,0.3430000000,32
322,314,312,0.2401000000,32
323,314,315,0.2401000000,32
324,316,311,0.4900000000,32
325,320,317,0.2401000000,32
326,313,314,0.4900000000,32
327,316,312,0.3430000000,32
328,313,315,0.3430000000,32
329,313,313,0.2401000000,32
330,312,317,0.3430000000,32
331,330,328,0.1176490000,33
332,324,324,0.1680700000,33
333,330,324,0.4900000000,33
334,326,330,0.2401000000,33
335,324,329,0.2401000000,33
336,322,329,0.4900000000,33
337,322,323,0.1680700000,33
338,321,330,0.4900000000,33
339,326,324,0.4900000000,33
340,323,330,0.3430000000,33
341,333,339,0.3430000000,34
342,336,333,0.3430000000,34
343,334,333,0.2401000000,34
344,334,338,0.3430000000,34
345,335,337,0.3430000000,34
346,339,337,0.2401000000,34
347,339,333,0.3430000000,34
348,332,338,0.3430000000,34
349,334,333,0.1680700000,34
350,339,339,0.4900000000,34
351,349,347,0.3430000000,35
352,346,350,0.4900000000,35
353,347,350,0.4900000000,35
354,347,345,0.2401000000,35
355,350,350,0.4900000000,35
356,345,345,0.2401000000,35
357,350,348,0.4900000000,35
358,344,344,0.2401000000,35
359,342,342,0.1680700000,35
360,347,346,0.3430000000,35
361,356,353,0.4900000000,36
362,352,360,0.3430000000,36
363,353,354,0.3430000000,36
364,358,360,0.3430000000,36
365,351,359,0.2401000000,36
366,359,351,0.1176490000,36
367,351,351,0.1680700000,36
368,358,357,0.4900000000,36
369,353,351,0.3430000000,36
370,352,356,0.3430000000,36
371,362,370,0.3430000000,37
372,369,361,0.4900000000,37
373,361,370,0.2401000000,37
374,361,367,0.4900000000,37
375,367,361,0.3430000000,37
376,361,367,0.3430000000,37
377,363,370,0.3430000000,37
378,368,368,0.3430000000,37
379,369,362,0.3430000000,37
380,368,362,0.4900000000,37
381,373,372,0.3430000000,38
382,379,378,0.3430000000,38
383,372,372,0.1680700000,38
384,377,378,0.4900000000,38
385,372,371,0.3430000000,38
386,376,371,0.3430000000,38
387,380,372,0.3430000000,38
388,376,372,0.2401000000,38
389,371,372,0.4900000000,38
390,372,378,0.4900000000,38
391,389,390,0.4900000000,39
392,390,389,0.3430000000,39
393,385,387,0.4900000000,39
394,382,384,0.3430000000,39
395,381,384,0.2401000000,39
396,383,386,0.2401000000,39
397,386,390,0.3430000000,39
398,384,387,0.4900000000,39
399,385,388,0.3430000000,39
400,389,381,0.3430000000,39
401,392,391,0.4900000000,40
402,394,398,0.2401000000,40
403,396,393,0.2401000000,40
404,399,395,0.1680700000,40
405,397,393,0.3430000000,40
406,394,391,0.4900000000,40
407,393,391,0.3430000000,40
408,398,398,0.3430000000,40
409,395,399,0.3430000000,40
410,394,400,0.3430000000,40
411,409,408,0.4900000000,41
412,408,409,0.4900000000,41
413,409,410,0.1680700000,41
414,409,405,0.2401000000,41
415,410,405,0.3430000000,41
416,404,405,0.3430000000,41
417,401,408,0.4900000000,41
418,403,403,0.1680700000,41
419,407,408,0.2401000000,41
420,407,408,0.3430000000,41
421,412,417,0.4900000000,42
422,411,420,0.4900000000,42
423,414,412,0.3430000000,42
424,412,420,0.3430000000,42
425,417,418,0.4900000000,42
426,418,412,0.3430000000,42
427,419,417,0.3430000000,42
428,411,411,0.1680700000,42
429,419,418,0.2401000000,42
430,419,417,0.3430000000,42
431,422,425,0.4900000000,43
432,427,422,0.3430000000,43
433,425,426,0.4900000000,43
434,430,423,0.4900000000,43
435,426,427,0.3430000000,43
436,425,430,0.3430000000,43
437,426,426,0.1680700000,43
438,426,425,0.4900000000,43
439,427,428,0.1680700000,43
440,425,430,0.4900000000,43
441,434,434,0.4900000000,44
442,433,437,0.3430000000,44
443,434,432,0.3430000000,44
444,433,436,0.1680700000,44
445,431,437,0.4900000000,44
446,432,436,0.3430000000,44
447,435,436,0.3430000000,44
448,432,433,0.4900000000,44
449,440,439,0.2401000000,44
450,431,433,0.3430000000,44
451,446,449,0.1680700000,45
452,445,448,0.4900000000,45
453,444,442,0.2401000000,45
454,448,442,0.4900000000,45
455,448,446,0.3430000000,45
456,448,448,0.4900000000,45
457,450,447,0.4900000000,45
458,445,446,0.3430000000,45
459,441,441,0.4900000000,45
460,441,442,0.2401000000,45
461,459,456,0.4900000000,46
462,452,457,0.3430000000,46
463,459,458,0.4900000000,46
464,457,457,0.2401000000,46
465,453,457,0.3430000000,46
466,454,452,0.4900000000,46
467,454,457,0.4900000000,46
468,452,457,0.4900000000,46
469,454,452,0.3430000000,46
470,451,452,0.1680700000,46
471,468,463,0.4900000000,47
472,466,462,0.3430000000,47
473,461,467,0.4900000000,47
474,467,465,0.4900000000,47
475,468,463,0.4900000000,47
476,469,461,0.3430000000,47
477,465,467,0.2401000000,47
478,468,461,0.4900000000,47
479,467,468,0.4900000000,47
480,470,470,0.1680700000,47
481,475,478,0.3430000000,48
482,471,474,0.3430000000,48
483,474,477,0.3430000000,48
484,474,472,0.4900000000,48
485,479,476,0.4900000000,48
486,479,477,0.4900000000,48
487,471,471,0.2401000000,48
488,480,478,0.3430000000,48
489,473,476,0.3430000000,48
490,473,473,0.2401000000,48
491,490,484,0.4900000000,49
492,482,482,0.3430000000,49
493,482,482,0.2401000000,49
494,488,485,0.3430000000,49
495,486,482,0.2401000000,49
496,484,485,0.4900000000,49
497,488,486,0.4900000000,49
498,485,481,0.4900000000,49
499,482,484,0.4900000000,49
500,482,483,0.4900000000,49
501,498,498,0.3430000000,50
502,499,497,0.4900000000,50
503,494,495,0.3430000000,50
504,493,500,0.3430000000,50
505,494,491,0.3430000000,50
506,491,495,0.4900000000,50
507,494,491,0.3430000000,50
508,496,492,0.4900000000,50
509,498,497,0.2401000000,50
510,491,496,0.4900000000,50
